%YAML 1.1
%TAG !u! tag:unity3d.com,2011:
--- !u!1045 &1
EditorBuildSettings:
  m_ObjectHideFlags: 0
  serializedVersion: 2
  m_Scenes:
  - enabled: 1
    path: Assets/Scene/Main.unity
    guid: f85510590707b412ab74127a8ba9cc20
  - enabled: 1
    path: Assets/Scene/GameOver.unity
    guid: 689e5c87e093d498ca77f4b19d7584ba
  - enabled: 1
    path: Assets/Scene/Win.unity
    guid: fd216ccbf97e54b2d9bb1cd745bd8bc5
